<?xml version="1.0" encoding="utf-8"?>
<!-- Generator: Adobe Illustrator 16.0.3, SVG Export Plug-In . SVG Version: 6.00 Build 0)  -->
<!DOCTYPE svg PUBLIC "-//W3C//DTD SVG 1.1//EN" "http://www.w3.org/Graphics/SVG/1.1/DTD/svg11.dtd">
<svg version="1.1" id="Layer_1" xmlns="http://www.w3.org/2000/svg" xmlns:xlink="http://www.w3.org/1999/xlink" x="0px" y="0px"
	 width="60px" height="60px" viewBox="0 0 60 60" style="enable-background:new 0 0 60 60;" xml:space="preserve">
<style type="text/css">
<![CDATA[
	.st0{fill:#231F20;}
	.st1{fill:none;stroke:#231F20;stroke-width:1.5;stroke-linecap:round;stroke-linejoin:round;stroke-miterlimit:10;}
]]>
</style>
<g>
	<g>
		<g>
			<path class="st0" d="M55.831,10.228H4.096c-0.414,0-0.75-0.336-0.75-0.75s0.336-0.75,0.75-0.75h51.735
				c0.414,0,0.75,0.336,0.75,0.75S56.245,10.228,55.831,10.228z"/>
		</g>
		<g>
			<path class="st0" d="M38.011,51.059c-0.275,0-0.529-0.151-0.66-0.395l-1.317-2.45c-0.118-0.219-0.12-0.482-0.005-0.703
				c0.116-0.22,0.333-0.369,0.58-0.397l12.237-1.396l9.802-2.852c0.229-0.067,0.475-0.021,0.664,0.123
				c0.188,0.144,0.299,0.369,0.296,0.606l-0.037,3.022c-0.004,0.296-0.182,0.562-0.454,0.68c-0.198,0.085-4.921,2.103-9.448,2.819
				c-4.479,0.708-11.344,0.933-11.634,0.942C38.026,51.059,38.019,51.059,38.011,51.059z M37.878,48.479l0.572,1.064
				c1.638-0.064,7.254-0.317,10.983-0.908c3.558-0.563,7.363-2.016,8.643-2.532l0.019-1.514l-8.891,2.587
				c-0.041,0.012-0.083,0.02-0.125,0.025L37.878,48.479z"/>
		</g>
		<g>
			<path class="st0" d="M22.013,51.293c-0.008,0-0.016,0-0.023,0c-0.29-0.009-7.154-0.232-11.634-0.943
				c-4.527-0.716-9.25-2.733-9.448-2.818c-0.272-0.117-0.45-0.384-0.454-0.68l-0.036-3.022c-0.003-0.237,0.107-0.462,0.296-0.606
				c0.189-0.144,0.438-0.189,0.663-0.123l9.803,2.851l12.239,1.397c0.247,0.028,0.465,0.177,0.58,0.398s0.113,0.484-0.005,0.703
				l-1.32,2.45C22.542,51.143,22.288,51.293,22.013,51.293z M1.947,46.338c1.279,0.515,5.085,1.967,8.643,2.53
				c3.732,0.592,9.347,0.845,10.984,0.909l0.573-1.064l-11.202-1.279c-0.042-0.005-0.084-0.013-0.124-0.025l-8.893-2.586
				L1.947,46.338z"/>
		</g>
		<g>
			<path class="st0" d="M22,51.293c-0.246,0-6.074-0.009-11.038-0.833c-4.989-0.826-9.855-2.84-10.061-2.926
				c-0.276-0.115-0.457-0.384-0.461-0.684L0.266,32.27c-0.017-0.078-0.021-0.159-0.009-0.242L3.235,9.359
				c0.028-0.223,0.156-0.42,0.347-0.539c0.189-0.119,0.424-0.146,0.637-0.074c0.126,0.042,12.709,4.253,25.752,4.253
				c13.053,0,25.546-4.21,25.671-4.252c0.214-0.072,0.445-0.046,0.636,0.071c0.19,0.118,0.318,0.314,0.35,0.536l3.083,22.232
				c0.026,0.078,0.041,0.159,0.04,0.243l-0.18,14.788c-0.004,0.296-0.182,0.562-0.454,0.68c-0.198,0.085-4.921,2.103-9.448,2.819
				c-4.479,0.708-11.344,0.933-11.634,0.942c-0.276,0.028-0.55-0.143-0.684-0.394l-6.282-11.667c-0.004,0-0.009,0-0.013,0h-1.987
				L22.66,50.899C22.529,51.142,22.276,51.293,22,51.293z M1.935,46.332c1.322,0.516,5.315,1.994,9.273,2.649
				c4.069,0.675,8.88,0.79,10.346,0.809l6.436-11.952c0.158-0.294,0.488-0.451,0.82-0.377l0.166,0.036h1.996l0.33-0.074
				c0.326-0.077,0.666,0.08,0.825,0.376l6.323,11.744c1.638-0.064,7.254-0.317,10.983-0.908c3.558-0.563,7.363-2.016,8.643-2.531
				l0.173-14.14c-0.003-0.012-0.005-0.024-0.007-0.037l-2.979-21.485c-3.086,0.955-13.983,4.057-25.293,4.057
				c-11.308,0-22.263-3.102-25.365-4.056L1.762,32.082c0.001,0.012,0.002,0.025,0.002,0.038L1.935,46.332z"/>
		</g>
		<g>
			<path class="st0" d="M31.466,38.904c-0.154,0-0.311-0.048-0.445-0.147c-0.333-0.246-0.403-0.716-0.157-1.049l1.972-2.666
				l0.123-15.965c0.003-0.414,0.35-0.785,0.756-0.744c0.414,0.003,0.747,0.342,0.744,0.756l-0.125,16.208
				c-0.001,0.159-0.053,0.312-0.146,0.44L32.07,38.6C31.923,38.799,31.696,38.904,31.466,38.904z"/>
		</g>
		<g>
			<path class="st0" d="M1.486,29.214c-0.386,0-0.714-0.296-0.746-0.688c-0.034-0.413,0.272-0.775,0.685-0.81
				c5.03-0.417,8.689-2.583,10.877-6.438c1.641-2.888,1.801-5.661,1.802-5.688c0.021-0.414,0.402-0.714,0.787-0.71
				c0.414,0.021,0.732,0.374,0.711,0.788c-0.007,0.125-0.794,12.443-14.052,13.544C1.528,29.213,1.507,29.214,1.486,29.214z"/>
		</g>
		<g>
			<path class="st0" d="M28.648,38.943c-0.395,0-0.726-0.309-0.748-0.708l-1.066-18.776c-0.023-0.414,0.293-0.768,0.706-0.792
				c0.405-0.015,0.769,0.292,0.792,0.707l1.066,18.776c0.023,0.414-0.293,0.768-0.706,0.792
				C28.678,38.943,28.663,38.943,28.648,38.943z"/>
		</g>
		<g>
			<g>
				<path class="st0" d="M27.585,17.223c-0.009,0-0.018,0-0.027,0C16.078,16.803,5.42,13.525,3.399,12.873
					c-0.395-0.127-0.61-0.55-0.483-0.944c0.128-0.394,0.554-0.608,0.944-0.483c1.987,0.642,12.471,3.866,23.752,4.278
					c0.414,0.015,0.737,0.363,0.722,0.777C28.319,16.905,27.987,17.223,27.585,17.223z"/>
			</g>
			<g>
				<path class="st0" d="M33.578,17.168c-0.396,0-0.727-0.31-0.748-0.709c-0.022-0.414,0.295-0.767,0.709-0.79
					c10.881-0.588,20.633-3.61,22.477-4.21c0.393-0.126,0.817,0.087,0.945,0.481c0.129,0.394-0.087,0.817-0.48,0.945
					c-1.876,0.61-11.793,3.683-22.861,4.281C33.605,17.167,33.592,17.168,33.578,17.168z"/>
			</g>
		</g>
		<g>
			<g>
				<path class="st0" d="M16.303,18.152c-0.303,0-0.587-0.184-0.701-0.483c-0.054-0.143-1.313-3.515,0.051-5.609
					c0.227-0.346,0.691-0.447,1.038-0.219c0.348,0.226,0.445,0.69,0.22,1.038c-0.787,1.208-0.199,3.483,0.094,4.258
					c0.146,0.387-0.049,0.82-0.436,0.967C16.48,18.136,16.391,18.152,16.303,18.152z"/>
			</g>
		</g>
		<g>
			<path class="st0" d="M30.64,18.761c-1.04,0-1.886-0.846-1.886-1.887c0-1.04,0.846-1.885,1.886-1.885
				c1.039,0,1.885,0.846,1.885,1.885C32.524,17.915,31.679,18.761,30.64,18.761z M30.64,16.489c-0.213,0-0.386,0.173-0.386,0.385
				c0,0.213,0.173,0.387,0.386,0.387c0.212,0,0.385-0.173,0.385-0.387C31.024,16.662,30.852,16.489,30.64,16.489z"/>
		</g>
		<g>
			<path class="st0" d="M58.434,29.214c-0.021,0-0.042-0.001-0.063-0.002c-13.261-1.101-14.048-13.42-14.055-13.544
				c-0.021-0.413,0.296-0.765,0.709-0.787c0.41-0.024,0.767,0.295,0.789,0.709c0.024,0.454,0.745,11.137,12.682,12.127
				c0.412,0.034,0.719,0.397,0.685,0.81C59.147,28.918,58.819,29.214,58.434,29.214z"/>
		</g>
		<g>
			<g>
				<path class="st0" d="M43.135,18.374c-0.109,0-0.221-0.024-0.326-0.075c-0.372-0.18-0.528-0.628-0.35-1.001
					c0.395-0.82,1.209-3.192,0.252-4.31c-0.269-0.314-0.232-0.788,0.083-1.057c0.312-0.268,0.788-0.233,1.058,0.083
					c1.789,2.092,0.034,5.782-0.042,5.938C43.681,18.218,43.413,18.374,43.135,18.374z"/>
			</g>
		</g>
	</g>
</g>
</svg>
