<?xml version="1.0" encoding="utf-8"?>
<!-- Generator: Adobe Illustrator 16.0.0, SVG Export Plug-In . SVG Version: 6.00 Build 0)  -->
<!DOCTYPE svg PUBLIC "-//W3C//DTD SVG 1.1//EN" "http://www.w3.org/Graphics/SVG/1.1/DTD/svg11.dtd">
<svg version="1.1" id="Layer_1" xmlns="http://www.w3.org/2000/svg" xmlns:xlink="http://www.w3.org/1999/xlink" x="0px" y="0px"
	 width="60px" height="60px" viewBox="0 0 60 60" style="enable-background:new 0 0 60 60;" xml:space="preserve">
<style type="text/css">
<![CDATA[
	.st0{fill:none;stroke:#231F20;stroke-width:1.5;stroke-linecap:round;stroke-linejoin:round;stroke-miterlimit:10;}
]]>
</style>
<g>
	<g>
		<g>
			<g>
				<g>
					<path class="st0" d="M11.471,1C9.692,1,8.249,2.442,8.249,4.222v51.557c0,1.78,1.443,3.221,3.222,3.221h37.059
						c1.778,0,3.222-1.441,3.222-3.221V15.922L36.218,1H11.471z"/>
				</g>
			</g>
			<g>
				<path class="st0" d="M51.751,15.922H39.439c-1.779,0-3.222-1.442-3.222-3.222V1"/>
			</g>
		</g>
	</g>
	<g>
		<path class="st0" d="M32.632,30.765v-0.029h-0.004c0.004,0-5.763,0-5.752,0h-0.011v20.638h5.767V30.852
			c0-0.014,0.001-0.025,0.001-0.046C32.633,30.796,32.632,30.779,32.632,30.765z"/>
	</g>
	<g>
		<path class="st0" d="M22.428,36.356v-0.021h-0.005c0.005,0-5.762,0-5.751,0h-0.011v15.04h5.767V36.419
			c0-0.012,0.001-0.02,0.001-0.034C22.429,36.378,22.428,36.366,22.428,36.356z"/>
	</g>
	<g>
		<path class="st0" d="M43.13,25.757V25.72h-0.003c0.003,0-5.764,0-5.753,0h-0.011v25.654h5.767V25.865
			c0-0.019,0.001-0.034,0.001-0.058C43.131,25.794,43.13,25.775,43.13,25.757z"/>
	</g>
</g>
</svg>
