<?xml version="1.0" encoding="utf-8"?>
<!-- Generator: Adobe Illustrator 16.0.0, SVG Export Plug-In . SVG Version: 6.00 Build 0)  -->
<!DOCTYPE svg PUBLIC "-//W3C//DTD SVG 1.1//EN" "http://www.w3.org/Graphics/SVG/1.1/DTD/svg11.dtd">
<svg version="1.1" id="Layer_1" xmlns="http://www.w3.org/2000/svg" xmlns:xlink="http://www.w3.org/1999/xlink" x="0px" y="0px"
	 width="60px" height="60px" viewBox="0 0 60 60" style="enable-background:new 0 0 60 60;" xml:space="preserve">
<style type="text/css">
<![CDATA[
	.st0{fill:none;stroke:#231F20;stroke-width:1.5;stroke-linecap:round;stroke-linejoin:round;stroke-miterlimit:10;}
]]>
</style>
<g>
	<g>
		<g>
			<path class="st0" d="M55.744,9.812h2.468C58.646,9.812,59,10.165,59,10.6v40.004c0,0.437-0.354,0.79-0.789,0.79H1.788
				C1.354,51.393,1,51.041,1,50.604V10.6c0-0.435,0.354-0.788,0.788-0.788H4.25"/>
			<polygon class="st0" points="30,49.367 4.198,48.253 4.198,8.607 30,9.832 			"/>
			<polygon class="st0" points="55.803,48.253 30,49.367 30,9.832 55.803,8.607 			"/>
		</g>
	</g>
	<g>
		<line class="st0" x1="7.904" y1="16.041" x2="26.174" y2="16.923"/>
		<line class="st0" x1="7.904" y1="21.837" x2="26.174" y2="22.719"/>
		<line class="st0" x1="7.904" y1="27.886" x2="26.174" y2="28.768"/>
		<line class="st0" x1="7.904" y1="34.271" x2="26.174" y2="35.152"/>
		<line class="st0" x1="7.904" y1="40.318" x2="26.174" y2="41.201"/>
	</g>
	<g>
		<line class="st0" x1="51.879" y1="16.041" x2="33.608" y2="16.923"/>
		<line class="st0" x1="51.879" y1="21.837" x2="33.608" y2="22.719"/>
		<line class="st0" x1="51.879" y1="27.886" x2="33.608" y2="28.768"/>
		<line class="st0" x1="51.879" y1="34.271" x2="33.608" y2="35.152"/>
		<line class="st0" x1="51.879" y1="40.318" x2="33.608" y2="41.201"/>
	</g>
</g>
</svg>
