<?xml version="1.0" encoding="utf-8"?>
<!-- Generator: Adobe Illustrator 16.0.0, SVG Export Plug-In . SVG Version: 6.00 Build 0)  -->
<!DOCTYPE svg PUBLIC "-//W3C//DTD SVG 1.1//EN" "http://www.w3.org/Graphics/SVG/1.1/DTD/svg11.dtd">
<svg version="1.1" id="Layer_1" xmlns="http://www.w3.org/2000/svg" xmlns:xlink="http://www.w3.org/1999/xlink" x="0px" y="0px"
	 width="60px" height="60px" viewBox="0 0 60 60" style="enable-background:new 0 0 60 60;" xml:space="preserve">
<style type="text/css">
<![CDATA[
	.st0{fill:none;stroke:#231F20;stroke-width:1.5;stroke-linecap:round;stroke-linejoin:round;stroke-miterlimit:10;}
]]>
</style>
<g>
	<g>
		<g>
			<g>
				<g>
					<g>
						<g>
							<g>
								<g>
									<circle class="st0" cx="29.999" cy="30" r="29"/>
								</g>
							</g>
						</g>
					</g>
				</g>
			</g>
		</g>
		<g>
			<g>
				<g>
					<g>
						<g>
							<g>
								<g>
									<circle class="st0" cx="29.999" cy="30" r="22.703"/>
								</g>
							</g>
						</g>
					</g>
				</g>
			</g>
		</g>
		<g>
			<g>
				<g>
					<g>
						<path class="st0" d="M39.631,21.313c0,1.847-2.095,3.162-2.217,2.997c-1.562-1.807-4.231-3.163-6.942-3.163
							c-2.752,0-4.436,1.232-4.436,3.081c0,2.137,2.259,2.711,5.422,3.41c3.779,0.822,8.749,2.342,8.749,7.722
							c0,4.149-2.875,7.024-7.682,7.765v1.601c0,1.891-0.739,2.793-2.381,2.793h-0.205c-1.725,0-2.341-0.862-2.341-2.793v-1.519
							c-4.972-0.534-7.805-2.793-7.805-5.094c0-1.767,1.971-3.04,2.135-2.875c1.562,1.889,4.601,3.449,7.805,3.449
							c2.917,0,4.601-1.232,4.601-3.081c0-2.258-2.547-2.875-5.545-3.573c-3.616-0.78-8.379-2.217-8.379-7.64
							c0-3.943,2.793-6.777,7.228-7.599v-1.521c0-1.889,0.699-2.792,2.343-2.792h0.245c1.684,0,2.341,0.861,2.341,2.792v1.398
							C37.126,17.165,39.631,19.217,39.631,21.313z"/>
					</g>
				</g>
			</g>
		</g>
	</g>
</g>
</svg>
