<?xml version="1.0" encoding="utf-8"?>
<!-- Generator: Adobe Illustrator 16.0.0, SVG Export Plug-In . SVG Version: 6.00 Build 0)  -->
<!DOCTYPE svg PUBLIC "-//W3C//DTD SVG 1.1//EN" "http://www.w3.org/Graphics/SVG/1.1/DTD/svg11.dtd">
<svg version="1.1" id="Layer_1" xmlns="http://www.w3.org/2000/svg" xmlns:xlink="http://www.w3.org/1999/xlink" x="0px" y="0px"
	 width="60px" height="60px" viewBox="0 0 60 60" style="enable-background:new 0 0 60 60;" xml:space="preserve">
<style type="text/css">
<![CDATA[
	.st0{fill:none;stroke:#231F20;stroke-width:1.5;stroke-linecap:round;stroke-linejoin:round;stroke-miterlimit:10;}
]]>
</style>
<g>
	<g>
		<path class="st0" d="M59,33.496v-6.994l-6.618-2.078c-0.563-2.245-1.454-4.36-2.62-6.291l3.217-6.165l-4.946-4.945l-6.184,3.226
			c-1.922-1.152-4.026-2.033-6.259-2.59l-2.092-6.656h-6.995l-2.093,6.656c-2.232,0.557-4.336,1.438-6.258,2.59l-6.184-3.226
			L7.02,11.969l3.218,6.164c-1.167,1.931-2.058,4.046-2.619,6.291L1,26.502v6.994l6.593,2.072c0.558,2.269,1.447,4.401,2.618,6.351
			L7.02,48.033l4.947,4.944l6.097-3.181c1.955,1.187,4.101,2.086,6.379,2.648l2.06,6.553h6.995l2.059-6.553
			c2.279-0.562,4.424-1.462,6.38-2.648l6.096,3.181l4.946-4.944l-3.19-6.114c1.17-1.949,2.061-4.082,2.618-6.351L59,33.496z
			 M30,45.35c-8.45,0-15.301-6.85-15.301-15.3c0-8.452,6.851-15.301,15.301-15.301s15.3,6.849,15.3,15.301
			C45.3,38.5,38.45,45.35,30,45.35z"/>
	</g>
</g>
</svg>
