<?xml version="1.0" encoding="utf-8"?>
<!-- Generator: Adobe Illustrator 16.0.3, SVG Export Plug-In . SVG Version: 6.00 Build 0)  -->
<!DOCTYPE svg PUBLIC "-//W3C//DTD SVG 1.1//EN" "http://www.w3.org/Graphics/SVG/1.1/DTD/svg11.dtd">
<svg version="1.1" id="Layer_1" xmlns="http://www.w3.org/2000/svg" xmlns:xlink="http://www.w3.org/1999/xlink" x="0px" y="0px"
	 width="60px" height="60px" viewBox="0 0 60 60" style="enable-background:new 0 0 60 60;" xml:space="preserve">
<style type="text/css">
<![CDATA[
	.st0{fill:#231F20;}
	
		.st1{fill-rule:evenodd;clip-rule:evenodd;fill:none;stroke:#231F20;stroke-width:1.5;stroke-linecap:round;stroke-linejoin:round;stroke-miterlimit:10;}
	.st2{fill:none;stroke:#231F20;stroke-width:1.5;stroke-linecap:round;stroke-linejoin:round;stroke-miterlimit:10;}
]]>
</style>
<g>
	<g>
		<g>
			<g>
				<path class="st0" d="M40.044,21.283c-0.346,0-0.657-0.241-0.732-0.593c-1.03-4.807-5.897-5.816-9.799-5.816
					c-3.813,0-8.601,0.967-9.743,5.575c-0.099,0.403-0.513,0.645-0.908,0.547c-0.402-0.1-0.647-0.506-0.547-0.909
					c1.073-4.329,5.051-6.713,11.198-6.713c6.297,0,10.298,2.486,11.266,7.001c0.087,0.405-0.171,0.804-0.576,0.891
					C40.149,21.277,40.097,21.283,40.044,21.283z"/>
			</g>
			<g>
				<path class="st0" d="M44.123,48.059C44.123,48.059,44.123,48.059,44.123,48.059c-5.511,0-9.989-2.77-11.409-7.056
					c-1.278-3.86,0.158-8.22,3.752-11.484l-1.662-5.016c-0.489-1.477,0.314-3.077,1.792-3.567l7.763-2.572
					c0.288-0.095,0.587-0.144,0.889-0.144c1.219,0,2.296,0.778,2.679,1.937l1.685,5.083c4.737,0.523,8.422,3.158,9.681,6.958
					c0.947,2.857,0.429,5.999-1.46,8.844c-1.851,2.789-4.808,4.966-8.325,6.132C47.733,47.761,45.922,48.059,44.123,48.059z
					 M45.247,19.72c-0.141,0-0.281,0.022-0.417,0.067l-7.762,2.572c-0.693,0.229-1.07,0.979-0.841,1.672l1.818,5.487
					c0.096,0.29,0.007,0.609-0.226,0.807c-3.398,2.893-4.81,6.804-3.683,10.206c1.213,3.661,5.133,6.027,9.984,6.027
					c0.001,0,0.001,0,0.001,0c1.639,0,3.291-0.272,4.91-0.809c3.201-1.061,5.882-3.027,7.548-5.538
					c1.628-2.454,2.085-5.132,1.286-7.543c-1.109-3.349-4.51-5.641-8.873-5.982c-0.301-0.023-0.559-0.225-0.653-0.512l-1.839-5.548
					C46.322,20.084,45.818,19.72,45.247,19.72z M44.678,44.895c-3.979,0-7.217-2.011-8.248-5.124
					c-1.399-4.223,1.757-9.082,7.034-10.831c1.272-0.421,2.572-0.635,3.863-0.635c3.979,0,7.217,2.011,8.248,5.123
					c0.689,2.08,0.314,4.36-1.054,6.423c-1.331,2.006-3.456,3.571-5.981,4.408C47.269,44.682,45.969,44.895,44.678,44.895z
					 M47.327,29.806c-1.131,0-2.271,0.188-3.392,0.559c-4.492,1.489-7.221,5.498-6.082,8.936c0.824,2.488,3.503,4.095,6.824,4.095
					c1.131,0,2.271-0.188,3.39-0.559c2.21-0.732,4.058-2.086,5.204-3.814c1.108-1.67,1.421-3.489,0.88-5.122
					C53.327,31.413,50.648,29.806,47.327,29.806z"/>
			</g>
			<g>
				<g>
					<path class="st0" d="M41.868,26.651c-0.069,0-0.138-0.01-0.203-0.028c-0.681-0.167-1.216-0.658-1.435-1.319
						c-0.349-1.054,0.225-2.195,1.278-2.544c1.031-0.343,2.203,0.248,2.543,1.278c0.222,0.669,0.08,1.392-0.379,1.934l-0.001-0.001
						C43.288,26.377,41.926,26.651,41.868,26.651z M42.142,24.158c-0.054,0-0.108,0.009-0.161,0.026
						c-0.269,0.089-0.415,0.38-0.326,0.649c0.042,0.126,0.132,0.229,0.249,0.289c0.193-0.057,0.508-0.161,0.698-0.231
						c0.058-0.119,0.068-0.254,0.026-0.381C42.559,24.299,42.363,24.158,42.142,24.158z"/>
				</g>
			</g>
			<g>
				<path class="st0" d="M43.126,28c-0.307,0-0.594-0.189-0.705-0.493l-0.563-1.547c-0.142-0.389,0.06-0.82,0.448-0.961
					c0.393-0.141,0.82,0.06,0.962,0.448l0.563,1.547c0.142,0.389-0.06,0.82-0.448,0.961C43.298,27.985,43.211,28,43.126,28z"/>
			</g>
		</g>
		<g>
			<g>
				<path class="st0" d="M15.878,48.059L15.878,48.059c-1.8,0-3.611-0.298-5.384-0.885c-3.518-1.166-6.475-3.343-8.325-6.132
					c-1.889-2.846-2.407-5.987-1.46-8.844c1.259-3.8,4.943-6.435,9.681-6.958l1.685-5.083c0.383-1.158,1.46-1.936,2.679-1.936
					c0.302,0,0.601,0.048,0.888,0.144l7.764,2.572c1.477,0.49,2.28,2.09,1.792,3.567l-1.662,5.016
					c3.594,3.265,5.03,7.625,3.752,11.485C25.866,45.289,21.388,48.059,15.878,48.059z M14.753,19.72
					c-0.571,0-1.075,0.365-1.255,0.907l-1.839,5.549c-0.095,0.287-0.353,0.488-0.653,0.512c-4.363,0.341-7.764,2.633-8.873,5.982
					c-0.799,2.411-0.343,5.089,1.286,7.543c1.666,2.51,4.347,4.477,7.548,5.538c1.619,0.537,3.271,0.809,4.911,0.809
					c4.852,0,8.771-2.366,9.984-6.027c1.127-3.402-0.284-7.313-3.683-10.207c-0.232-0.198-0.321-0.518-0.226-0.807l1.818-5.487
					c0.229-0.692-0.148-1.442-0.841-1.672l-7.763-2.572C15.034,19.742,14.894,19.72,14.753,19.72z M15.322,44.895
					c-1.291,0-2.591-0.213-3.862-0.635c-2.525-0.837-4.65-2.402-5.981-4.408c-1.368-2.063-1.743-4.344-1.054-6.423
					c1.03-3.112,4.268-5.123,8.247-5.123c1.292,0,2.592,0.213,3.863,0.635c5.278,1.749,8.435,6.608,7.035,10.831
					C22.539,42.884,19.302,44.895,15.322,44.895z M12.672,29.806c-3.321,0-6,1.607-6.823,4.095c-0.541,1.633-0.229,3.452,0.88,5.122
					c1.146,1.728,2.994,3.082,5.204,3.814c1.118,0.371,2.259,0.559,3.39,0.559c3.321,0,6-1.607,6.824-4.095
					c1.139-3.438-1.59-7.446-6.084-8.936C14.944,29.994,13.803,29.806,12.672,29.806z"/>
			</g>
			<g>
				<g>
					<path class="st0" d="M18.132,26.651L18.132,26.651c-0.06,0-1.408-0.265-1.802-0.679l-0.001,0.001
						c-0.46-0.542-0.603-1.265-0.381-1.935c0.34-1.029,1.51-1.62,2.544-1.278c0.51,0.169,0.924,0.527,1.165,1.007
						c0.242,0.48,0.281,1.026,0.112,1.537c-0.219,0.661-0.754,1.152-1.435,1.319C18.27,26.642,18.201,26.651,18.132,26.651z
						 M17.399,24.891c0.189,0.07,0.504,0.174,0.697,0.231c0.117-0.061,0.207-0.163,0.249-0.29c0.043-0.13,0.033-0.269-0.028-0.392
						s-0.167-0.214-0.297-0.257c-0.276-0.089-0.562,0.063-0.648,0.325C17.33,24.637,17.341,24.772,17.399,24.891z"/>
				</g>
			</g>
			<g>
				<path class="st0" d="M16.793,28c-0.089,0-0.18-0.016-0.268-0.049c-0.388-0.148-0.581-0.582-0.433-0.969l0.598-1.562
					c0.147-0.387,0.581-0.581,0.968-0.433c0.388,0.148,0.581,0.582,0.433,0.969l-0.598,1.562C17.379,27.816,17.095,28,16.793,28z"/>
			</g>
		</g>
	</g>
</g>
</svg>
