<?xml version="1.0" encoding="utf-8"?>
<!-- Generator: Adobe Illustrator 16.0.0, SVG Export Plug-In . SVG Version: 6.00 Build 0)  -->
<!DOCTYPE svg PUBLIC "-//W3C//DTD SVG 1.1//EN" "http://www.w3.org/Graphics/SVG/1.1/DTD/svg11.dtd">
<svg version="1.1" id="Layer_1" xmlns="http://www.w3.org/2000/svg" xmlns:xlink="http://www.w3.org/1999/xlink" x="0px" y="0px"
	 width="60px" height="60px" viewBox="0 0 60 60" style="enable-background:new 0 0 60 60;" xml:space="preserve">
<style type="text/css">
<![CDATA[
	.st0{fill:none;stroke:#231F20;stroke-width:1.5;stroke-linecap:round;stroke-linejoin:round;stroke-miterlimit:10;}
]]>
</style>
<g>
	<g>
		<g>
			<g>
				<g>
					<g>
						<g>
							<rect x="12.637" y="1" class="st0" width="34.727" height="58"/>
						</g>
					</g>
					<g>
						<polygon class="st0" points="34.315,51.586 12.637,59 12.637,1 34.315,11.776 						"/>
					</g>
				</g>
			</g>
			<polygon class="st0" points="31.227,27.816 18.11,28.192 18.11,8.903 31.227,14.421 			"/>
		</g>
	</g>
	<line class="st0" x1="33.189" y1="31.921" x2="35.643" y2="31.921"/>
</g>
</svg>
